icpms analysis
…
MB

## # A tibble: 6 x 4
##   metal Site  conc_dil conc_dil_error
##   <chr> <chr>    <dbl>          <dbl>
## 1 PB208 MB     0.455          0.739  
## 2 Cr53  MB     0.543          0.0637 
## 3 Cr52  MB     0.535          0.0570 
## 4 Cd114 MB     0.00657        0.00674
## 5 Cd111 MB     0.00511        0.00560
## 6 As75  MB     0.0475         0.0550

uncor_sample

## # A tibble: 204 x 6
##    Sample.Key Analyst metal Site  conc_dil conc_dil_error
##         <int> <fct>   <chr> <chr>    <dbl>          <dbl>
##  1         59 SS      PB208 QC        377.           5.44
##  2         57 AVM     PB208 QC        345.           8.71
##  3         53 MF      PB208 QC        408.           3.07
##  4         47 LML     PB208 QC        472.           7.79
##  5         44 KAD     PB208 QC        461.           1.64
##  6         39 GB      PB208 QC        334.           4.98
##  7         27 AWB     PB208 QC        473.           3.65
##  8         23 SEP     PB208 QC        322.           5.54
##  9         19 SJB     PB208 QC        430.           2.14
## 10         17 JHV     PB208 QC        457.           4.65
## #  with 194 more rows
…
  #error prop
  conc_dil_blanked_error<- sqrt((sample_metal$conc_dil_error)^2+(MB_metal$conc_dil_error)^2)
  
  sample_data_mb<- sample_metal%>%
    mutate(conc_dil_blanked, conc_dil_blanked_error)%>%
    rbind(sample_data_mb)
}

sample_data_mb

## # A tibble: 204 x 8
##    Sample.Key Analyst metal Site  conc_dil conc_dil_error conc_dil_blanked
##         <int> <fct>   <chr> <chr>    <dbl>          <dbl>            <dbl>
##  1         59 SS      PB208 QC        377.           5.44             376.
##  2         57 AVM     PB208 QC        345.           8.71             344.
##  3         53 MF      PB208 QC        408.           3.07             407.
##  4         47 LML     PB208 QC        472.           7.79             472.
##  5         44 KAD     PB208 QC        461.           1.64             460.
##  6         39 GB      PB208 QC        334.           4.98             334.
##  7         27 AWB     PB208 QC        473.           3.65             473.
##  8         23 SEP     PB208 QC        322.           5.54             322.
##  9         19 SJB     PB208 QC        430.           2.14             429.
## 10         17 JHV     PB208 QC        457.           4.65             456.
## #  with 194 more rows, and 1 more variable: conc_dil_blanked_error <dbl>
…
